Procesador_RISCV/RISCV.vcd
$date
	Mon Apr  8 09:01:51 2024
$end

$version
	Synopsys VCS version R-2020.12-SP2_Full64
$end

$timescale
	1ps
$end

$comment Csum: 1 dbfd9e3f70113ebd $end


$scope module test_RISC_V $end

$scope module uut $end
$var wire 1 ! clk $end
$var wire 1 " rst $end
$var wire 1 # beq $end
$var wire 1 $ mem_read $end
$var wire 1 % mem_write $end
$var wire 1 & alu_src $end
$var wire 1 ' mem_to_reg $end
$var wire 1 ( reg_write $end
$var wire 1 ) zero $end
$var wire 2 * alu_op [1:0] $end
$var wire 3 + opcode [2:0] $end

$scope module DatapathUnit $end
$var wire 1 ! clk $end
$var wire 1 " rst $end
$var wire 1 # beq $end
$var wire 1 $ mem_read $end
$var wire 1 % mem_write $end
$var wire 1 & alu_src $end
$var wire 1 ' mem_to_reg $end
$var wire 1 ( reg_write $end
$var wire 2 * alu_op [1:0] $end
$var wire 3 + Opcode [2:0] $end
$var wire 1 ) z $end
$var reg 32 , pc_current [31:0] $end
$var wire 32 - pc_next [31:0] $end
$var wire 32 . pc2 [31:0] $end
$var wire 32 / offset [31:0] $end
$var wire 3 0 cod_ins [2:0] $end
$var wire 5 1 reg_write_dest [4:0] $end
$var wire 64 2 reg_write_data [63:0] $end
$var wire 5 3 reg_read_addr_1 [4:0] $end
$var wire 64 4 reg_read_data_1 [63:0] $end
$var wire 5 5 reg_read_addr_2 [4:0] $end
$var wire 64 6 reg_read_data_2 [63:0] $end
$var wire 64 7 im_ext [63:0] $end
$var wire 64 8 read_data2 [63:0] $end
$var wire 64 9 ALU_out [63:0] $end
$var wire 1 : zero_flag $end
$var wire 1 ; beq_control $end
$var wire 32 < PC_beq [31:0] $end
$var wire 64 = mem_read_data [63:0] $end

$scope module Memoria_Instrucciones $end
$var wire 1 ! clk $end
$var wire 32 > pc [31:0] $end
$var reg 3 ? Opcode [2:0] $end
$var reg 5 @ Rs1 [4:0] $end
$var reg 5 A Rs2 [4:0] $end
$var reg 5 B Rd [4:0] $end
$var reg 32 C Offset [31:0] $end
$var wire 32 D Instruction [0:31] $end
$var wire 3 E Sel [2:0] $end
$var wire 3 F DataProcessingOp [2:0] $end
$var wire 1 G SumOrSub $end

$scope module Bloque_de_instrucciones $end
$var wire 1 ! clk $end
$var wire 32 > Addres [31:0] $end
$var reg 32 H Instruction [0:31] $end
$var wire 3 I rom_addr [2:0] $end
$upscope $end

$upscope $end


$scope module GPRs $end
$var wire 5 3 ptr_rd_1 [4:0] $end
$var wire 5 5 ptr_rd_2 [4:0] $end
$var wire 5 1 ptr_wr [4:0] $end
$var wire 64 2 data_wr [63:0] $end
$var wire 1 ( wr_en $end
$var wire 1 " rst $end
$var wire 1 ! clk $end
$var reg 64 J data_rd_1 [63:0] $end
$var reg 64 K data_rd_2 [63:0] $end

$scope module Habilitador_escritura $end
$var wire 5 1 reg_wr_cod [4:0] $end
$var wire 1 ( wr_en $end
$upscope $end


$scope module Mux_rd_1 $end
$var wire 5 3 read_code [4:0] $end
$var wire 64 L Q [63:0] $end

$scope module Decodificador $end
$var wire 5 3 Selector [4:0] $end
$upscope $end

$upscope $end


$scope module Mux_rd_2 $end
$var wire 5 5 read_code [4:0] $end
$var wire 64 M Q [63:0] $end

$scope module Decodificador $end
$var wire 5 5 Selector [4:0] $end
$upscope $end

$upscope $end


$scope module Registro_[0].Registro $end
$var wire 64 2 data [63:0] $end
$var wire 1 ! clk $end
$var wire 1 " rst $end
$var wire 1 N enable $end
$var reg 64 O q [63:0] $end
$upscope $end


$scope module Registro_[1].Registro $end
$var wire 64 2 data [63:0] $end
$var wire 1 ! clk $end
$var wire 1 " rst $end
$var wire 1 P enable $end
$var reg 64 Q q [63:0] $end
$upscope $end


$scope module Registro_[2].Registro $end
$var wire 64 2 data [63:0] $end
$var wire 1 ! clk $end
$var wire 1 " rst $end
$var wire 1 R enable $end
$var reg 64 S q [63:0] $end
$upscope $end


$scope module Registro_[3].Registro $end
$var wire 64 2 data [63:0] $end
$var wire 1 ! clk $end
$var wire 1 " rst $end
$var wire 1 T enable $end
$var reg 64 U q [63:0] $end
$upscope $end


$scope module Registro_[4].Registro $end
$var wire 64 2 data [63:0] $end
$var wire 1 ! clk $end
$var wire 1 " rst $end
$var wire 1 V enable $end
$var reg 64 W q [63:0] $end
$upscope $end


$scope module Registro_[5].Registro $end
$var wire 64 2 data [63:0] $end
$var wire 1 ! clk $end
$var wire 1 " rst $end
$var wire 1 X enable $end
$var reg 64 Y q [63:0] $end
$upscope $end


$scope module Registro_[6].Registro $end
$var wire 64 2 data [63:0] $end
$var wire 1 ! clk $end
$var wire 1 " rst $end
$var wire 1 Z enable $end
$var reg 64 [ q [63:0] $end
$upscope $end


$scope module Registro_[7].Registro $end
$var wire 64 2 data [63:0] $end
$var wire 1 ! clk $end
$var wire 1 " rst $end
$var wire 1 \ enable $end
$var reg 64 ] q [63:0] $end
$upscope $end


$scope module Registro_[8].Registro $end
$var wire 64 2 data [63:0] $end
$var wire 1 ! clk $end
$var wire 1 " rst $end
$var wire 1 ^ enable $end
$var reg 64 _ q [63:0] $end
$upscope $end


$scope module Registro_[9].Registro $end
$var wire 64 2 data [63:0] $end
$var wire 1 ! clk $end
$var wire 1 " rst $end
$var wire 1 ` enable $end
$var reg 64 a q [63:0] $end
$upscope $end


$scope module Registro_[10].Registro $end
$var wire 64 2 data [63:0] $end
$var wire 1 ! clk $end
$var wire 1 " rst $end
$var wire 1 b enable $end
$var reg 64 c q [63:0] $end
$upscope $end


$scope module Registro_[11].Registro $end
$var wire 64 2 data [63:0] $end
$var wire 1 ! clk $end
$var wire 1 " rst $end
$var wire 1 d enable $end
$var reg 64 e q [63:0] $end
$upscope $end


$scope module Registro_[12].Registro $end
$var wire 64 2 data [63:0] $end
$var wire 1 ! clk $end
$var wire 1 " rst $end
$var wire 1 f enable $end
$var reg 64 g q [63:0] $end
$upscope $end


$scope module Registro_[13].Registro $end
$var wire 64 2 data [63:0] $end
$var wire 1 ! clk $end
$var wire 1 " rst $end
$var wire 1 h enable $end
$var reg 64 i q [63:0] $end
$upscope $end


$scope module Registro_[14].Registro $end
$var wire 64 2 data [63:0] $end
$var wire 1 ! clk $end
$var wire 1 " rst $end
$var wire 1 j enable $end
$var reg 64 k q [63:0] $end
$upscope $end


$scope module Registro_[15].Registro $end
$var wire 64 2 data [63:0] $end
$var wire 1 ! clk $end
$var wire 1 " rst $end
$var wire 1 l enable $end
$var reg 64 m q [63:0] $end
$upscope $end


$scope module Registro_[16].Registro $end
$var wire 64 2 data [63:0] $end
$var wire 1 ! clk $end
$var wire 1 " rst $end
$var wire 1 n enable $end
$var reg 64 o q [63:0] $end
$upscope $end


$scope module Registro_[17].Registro $end
$var wire 64 2 data [63:0] $end
$var wire 1 ! clk $end
$var wire 1 " rst $end
$var wire 1 p enable $end
$var reg 64 q q [63:0] $end
$upscope $end


$scope module Registro_[18].Registro $end
$var wire 64 2 data [63:0] $end
$var wire 1 ! clk $end
$var wire 1 " rst $end
$var wire 1 r enable $end
$var reg 64 s q [63:0] $end
$upscope $end


$scope module Registro_[19].Registro $end
$var wire 64 2 data [63:0] $end
$var wire 1 ! clk $end
$var wire 1 " rst $end
$var wire 1 t enable $end
$var reg 64 u q [63:0] $end
$upscope $end


$scope module Registro_[20].Registro $end
$var wire 64 2 data [63:0] $end
$var wire 1 ! clk $end
$var wire 1 " rst $end
$var wire 1 v enable $end
$var reg 64 w q [63:0] $end
$upscope $end


$scope module Registro_[21].Registro $end
$var wire 64 2 data [63:0] $end
$var wire 1 ! clk $end
$var wire 1 " rst $end
$var wire 1 x enable $end
$var reg 64 y q [63:0] $end
$upscope $end


$scope module Registro_[22].Registro $end
$var wire 64 2 data [63:0] $end
$var wire 1 ! clk $end
$var wire 1 " rst $end
$var wire 1 z enable $end
$var reg 64 { q [63:0] $end
$upscope $end


$scope module Registro_[23].Registro $end
$var wire 64 2 data [63:0] $end
$var wire 1 ! clk $end
$var wire 1 " rst $end
$var wire 1 | enable $end
$var reg 64 } q [63:0] $end
$upscope $end


$scope module Registro_[24].Registro $end
$var wire 64 2 data [63:0] $end
$var wire 1 ! clk $end
$var wire 1 " rst $end
$var wire 1 ~ enable $end
$var reg 64 "! q [63:0] $end
$upscope $end


$scope module Registro_[25].Registro $end
$var wire 64 2 data [63:0] $end
$var wire 1 ! clk $end
$var wire 1 " rst $end
$var wire 1 "" enable $end
$var reg 64 "# q [63:0] $end
$upscope $end


$scope module Registro_[26].Registro $end
$var wire 64 2 data [63:0] $end
$var wire 1 ! clk $end
$var wire 1 " rst $end
$var wire 1 "$ enable $end
$var reg 64 "% q [63:0] $end
$upscope $end


$scope module Registro_[27].Registro $end
$var wire 64 2 data [63:0] $end
$var wire 1 ! clk $end
$var wire 1 " rst $end
$var wire 1 "& enable $end
$var reg 64 "' q [63:0] $end
$upscope $end


$scope module Registro_[28].Registro $end
$var wire 64 2 data [63:0] $end
$var wire 1 ! clk $end
$var wire 1 " rst $end
$var wire 1 "( enable $end
$var reg 64 ") q [63:0] $end
$upscope $end


$scope module Registro_[29].Registro $end
$var wire 64 2 data [63:0] $end
$var wire 1 ! clk $end
$var wire 1 " rst $end
$var wire 1 "* enable $end
$var reg 64 "+ q [63:0] $end
$upscope $end


$scope module Registro_[30].Registro $end
$var wire 64 2 data [63:0] $end
$var wire 1 ! clk $end
$var wire 1 " rst $end
$var wire 1 ", enable $end
$var reg 64 "- q [63:0] $end
$upscope $end


$scope module Registro_[31].Registro $end
$var wire 64 2 data [63:0] $end
$var wire 1 ! clk $end
$var wire 1 " rst $end
$var wire 1 ". enable $end
$var reg 64 "/ q [63:0] $end
$upscope $end

$upscope $end


$scope module InmSext $end
$var wire 32 / Offset [31:0] $end
$var reg 64 "0 Inmediato [63:0] $end
$var wire 3 "1 Selector [2:0] $end
$upscope $end


$scope module UnidadALU $end
$var wire 64 4 A [63:0] $end
$var wire 64 8 B [63:0] $end
$var wire 2 * sel [1:0] $end
$var reg 1 "2 zero $end
$var reg 64 "3 resultado [63:0] $end
$var reg 64 "4 sub [63:0] $end
$var reg 64 "5 bn [63:0] $end
$var reg 64 "6 bj [63:0] $end
$upscope $end


$scope module Memoria_Informacion $end
$var wire 1 ! clk $end
$var wire 64 9 mem_access_addr [63:0] $end
$var wire 64 6 mem_write_data [63:0] $end
$var wire 1 % mem_write_en $end
$var wire 1 $ mem_read $end
$var wire 64 = mem_read_data [63:0] $end
$var wire 64 "7 ram_addr [63:0] $end
$upscope $end

$upscope $end


$scope module ControlUnit $end
$var wire 3 + Opcode [2:0] $end
$var wire 1 ) z $end
$var reg 2 "8 alu_op [1:0] $end
$var reg 1 "9 beq $end
$var reg 1 ": mem_read $end
$var reg 1 "; mem_write $end
$var reg 1 "< alu_src $end
$var reg 1 "= mem_to_reg $end
$var reg 1 "> reg_write $end
$upscope $end

$upscope $end

$upscope $end

$enddefinitions $end

#0
$dumpvars
1"<
0"9
1":
1"=
0";
1">
x"2
0G
1&
0#
0;
1$
1'
0%
x)
x:
bxxxxxxxxxxxxxxxxxxxxxxxxxxxxxxxxxxxxxxxxxxxxxxxxxxxxxxxxxxxxxxxx 9
b11000001000011000000100000000000 H
b00 "8
b110 F
b0000000000000000000000000000000000000000000000000000000000000001 "0
b11000001000011000000100000000000 D
b000 ?
b00000000000100000011000010000011 C
b00000000000000000000000000000101 <
b00001 B
bxxxxxxxxxxxxxxxxxxxxxxxxxxxxxxxxxxxxxxxxxxxxxxxxxxxxxxxxxxxxxxxx c
bxxxxxxxxxxxxxxxxxxxxxxxxxxxxxxxxxxxxxxxxxxxxxxxxxxxxxxxxxxxxxxxx e
bxxxxxxxxxxxxxxxxxxxxxxxxxxxxxxxxxxxxxxxxxxxxxxxxxxxxxxxxxxxxxxxx g
bxxxxxxxxxxxxxxxxxxxxxxxxxxxxxxxxxxxxxxxxxxxxxxxxxxxxxxxxxxxxxxxx i
bxxxxxxxxxxxxxxxxxxxxxxxxxxxxxxxxxxxxxxxxxxxxxxxxxxxxxxxxxxxxxxxx k
bxxxxxxxxxxxxxxxxxxxxxxxxxxxxxxxxxxxxxxxxxxxxxxxxxxxxxxxxxxxxxxxx m
bxxxxxxxxxxxxxxxxxxxxxxxxxxxxxxxxxxxxxxxxxxxxxxxxxxxxxxxxxxxxxxxx o
bxxxxxxxxxxxxxxxxxxxxxxxxxxxxxxxxxxxxxxxxxxxxxxxxxxxxxxxxxxxxxxxx q
bxxxxxxxxxxxxxxxxxxxxxxxxxxxxxxxxxxxxxxxxxxxxxxxxxxxxxxxxxxxxxxxx s
bxxxxxxxxxxxxxxxxxxxxxxxxxxxxxxxxxxxxxxxxxxxxxxxxxxxxxxxxxxxxxxxx u
bxxxxxxxxxxxxxxxxxxxxxxxxxxxxxxxxxxxxxxxxxxxxxxxxxxxxxxxxxxxxxxxx Q
bxxxxxxxxxxxxxxxxxxxxxxxxxxxxxxxxxxxxxxxxxxxxxxxxxxxxxxxxxxxxxxxx w
bxxxxxxxxxxxxxxxxxxxxxxxxxxxxxxxxxxxxxxxxxxxxxxxxxxxxxxxxxxxxxxxx y
bxxxxxxxxxxxxxxxxxxxxxxxxxxxxxxxxxxxxxxxxxxxxxxxxxxxxxxxxxxxxxxxx {
bxxxxxxxxxxxxxxxxxxxxxxxxxxxxxxxxxxxxxxxxxxxxxxxxxxxxxxxxxxxxxxxx }
bxxxxxxxxxxxxxxxxxxxxxxxxxxxxxxxxxxxxxxxxxxxxxxxxxxxxxxxxxxxxxxxx "!
bxxxxxxxxxxxxxxxxxxxxxxxxxxxxxxxxxxxxxxxxxxxxxxxxxxxxxxxxxxxxxxxx "#
bxxxxxxxxxxxxxxxxxxxxxxxxxxxxxxxxxxxxxxxxxxxxxxxxxxxxxxxxxxxxxxxx "%
bxxxxxxxxxxxxxxxxxxxxxxxxxxxxxxxxxxxxxxxxxxxxxxxxxxxxxxxxxxxxxxxx "'
bxxxxxxxxxxxxxxxxxxxxxxxxxxxxxxxxxxxxxxxxxxxxxxxxxxxxxxxxxxxxxxxx ")
bxxxxxxxxxxxxxxxxxxxxxxxxxxxxxxxxxxxxxxxxxxxxxxxxxxxxxxxxxxxxxxxx "+
bxxxxxxxxxxxxxxxxxxxxxxxxxxxxxxxxxxxxxxxxxxxxxxxxxxxxxxxxxxxxxxxx S
bxxxxxxxxxxxxxxxxxxxxxxxxxxxxxxxxxxxxxxxxxxxxxxxxxxxxxxxxxxxxxxxx "-
bxxxxxxxxxxxxxxxxxxxxxxxxxxxxxxxxxxxxxxxxxxxxxxxxxxxxxxxxxxxxxxxx "/
bxxxxxxxxxxxxxxxxxxxxxxxxxxxxxxxxxxxxxxxxxxxxxxxxxxxxxxxxxxxxxxxx U
bxxxxxxxxxxxxxxxxxxxxxxxxxxxxxxxxxxxxxxxxxxxxxxxxxxxxxxxxxxxxxxxx W
bxxxxxxxxxxxxxxxxxxxxxxxxxxxxxxxxxxxxxxxxxxxxxxxxxxxxxxxxxxxxxxxx Y
bxxxxxxxxxxxxxxxxxxxxxxxxxxxxxxxxxxxxxxxxxxxxxxxxxxxxxxxxxxxxxxxx [
bxxxxxxxxxxxxxxxxxxxxxxxxxxxxxxxxxxxxxxxxxxxxxxxxxxxxxxxxxxxxxxxx ]
bxxxxxxxxxxxxxxxxxxxxxxxxxxxxxxxxxxxxxxxxxxxxxxxxxxxxxxxxxxxxxxxx _
bxxxxxxxxxxxxxxxxxxxxxxxxxxxxxxxxxxxxxxxxxxxxxxxxxxxxxxxxxxxxxxxx a
b00000 @
b00001 A
b000 E
b000 "1
b00 *
bxxxxxxxxxxxxxxxxxxxxxxxxxxxxxxxxxxxxxxxxxxxxxxxxxxxxxxxxxxxxxxxx "6
bxxxxxxxxxxxxxxxxxxxxxxxxxxxxxxxxxxxxxxxxxxxxxxxxxxxxxxxxxxxxxxxx "5
b000 0
bxxxxxxxxxxxxxxxxxxxxxxxxxxxxxxxxxxxxxxxxxxxxxxxxxxxxxxxxxxxxxxxx J
bxxxxxxxxxxxxxxxxxxxxxxxxxxxxxxxxxxxxxxxxxxxxxxxxxxxxxxxxxxxxxxxx K
b0000000000000000000000000000000000000000000000000000000000000001 7
bxxxxxxxxxxxxxxxxxxxxxxxxxxxxxxxxxxxxxxxxxxxxxxxxxxxxxxxxxxxxxxxx =
b00000000000100000011000010000011 /
b000 +
b00000000000000000000000000000000 >
b00000000000000000000000000000100 .
b00000000000000000000000000000000 ,
b00000000000000000000000000000100 -
bxxxxxxxxxxxxxxxxxxxxxxxxxxxxxxxxxxxxxxxxxxxxxxxxxxxxxxxxxxxxxxxx O
bxxxxxxxxxxxxxxxxxxxxxxxxxxxxxxxxxxxxxxxxxxxxxxxxxxxxxxxxxxxxxxxx "7
b0000000000000000000000000000000000000000000000000000000000000001 8
bxxxxxxxxxxxxxxxxxxxxxxxxxxxxxxxxxxxxxxxxxxxxxxxxxxxxxxxxxxxxxxxx 4
bxxxxxxxxxxxxxxxxxxxxxxxxxxxxxxxxxxxxxxxxxxxxxxxxxxxxxxxxxxxxxxxx 6
bxxxxxxxxxxxxxxxxxxxxxxxxxxxxxxxxxxxxxxxxxxxxxxxxxxxxxxxxxxxxxxxx 2
bxxxxxxxxxxxxxxxxxxxxxxxxxxxxxxxxxxxxxxxxxxxxxxxxxxxxxxxxxxxxxxxx "3
b000 I
bxxxxxxxxxxxxxxxxxxxxxxxxxxxxxxxxxxxxxxxxxxxxxxxxxxxxxxxxxxxxxxxx "4
0!
0"
1(
b00001 1
b00000 3
b00001 5
bxxxxxxxxxxxxxxxxxxxxxxxxxxxxxxxxxxxxxxxxxxxxxxxxxxxxxxxxxxxxxxxx L
bxxxxxxxxxxxxxxxxxxxxxxxxxxxxxxxxxxxxxxxxxxxxxxxxxxxxxxxxxxxxxxxx M
0N
1P
0R
0T
0V
0X
0Z
0\
0^
0`
0b
0d
0f
0h
0j
0l
0n
0p
0r
0t
0v
0x
0z
0|
0~
0""
0"$
0"&
0"(
0"*
0",
0".
$end
#5000
1!
b00000000000000000000000000000100 ,
b00000000000000000000000000000100 >
b001 I
b11000000100011000000010000000000 H
b11000000100011000000010000000000 D
b00000000000000000000000000001000 .
b00000000000000000000000000001001 <
b00000000001000000011000100000011 C
b00000000001000000011000100000011 /
b00000000000000000000000000001000 -
b0000000000000000000000000000000000000000000000000000000000000010 "0
b0000000000000000000000000000000000000000000000000000000000000010 7
b00000000000000000000000000001010 <
b0000000000000000000000000000000000000000000000000000000000000010 8
b00010 A
b00010 5
b00010 B
b00010 1
1R
0P
#10000
1"
0!
b0000000000000000000000000000000000000000000000000000000000000000 O
b0000000000000000000000000000000000000000000000000000000000000000 Q
b0000000000000000000000000000000000000000000000000000000000000000 S
b0000000000000000000000000000000000000000000000000000000000000000 U
b0000000000000000000000000000000000000000000000000000000000000000 W
b0000000000000000000000000000000000000000000000000000000000000000 Y
b0000000000000000000000000000000000000000000000000000000000000000 [
b0000000000000000000000000000000000000000000000000000000000000000 ]
b0000000000000000000000000000000000000000000000000000000000000000 _
b0000000000000000000000000000000000000000000000000000000000000000 a
b0000000000000000000000000000000000000000000000000000000000000000 c
b0000000000000000000000000000000000000000000000000000000000000000 e
b0000000000000000000000000000000000000000000000000000000000000000 g
b0000000000000000000000000000000000000000000000000000000000000000 i
b0000000000000000000000000000000000000000000000000000000000000000 k
b0000000000000000000000000000000000000000000000000000000000000000 m
b0000000000000000000000000000000000000000000000000000000000000000 o
b0000000000000000000000000000000000000000000000000000000000000000 q
b0000000000000000000000000000000000000000000000000000000000000000 s
b0000000000000000000000000000000000000000000000000000000000000000 u
b0000000000000000000000000000000000000000000000000000000000000000 w
b0000000000000000000000000000000000000000000000000000000000000000 y
b0000000000000000000000000000000000000000000000000000000000000000 {
b0000000000000000000000000000000000000000000000000000000000000000 }
b0000000000000000000000000000000000000000000000000000000000000000 "!
b0000000000000000000000000000000000000000000000000000000000000000 "#
b0000000000000000000000000000000000000000000000000000000000000000 "%
b0000000000000000000000000000000000000000000000000000000000000000 "'
b0000000000000000000000000000000000000000000000000000000000000000 ")
b0000000000000000000000000000000000000000000000000000000000000000 "+
b0000000000000000000000000000000000000000000000000000000000000000 "-
b0000000000000000000000000000000000000000000000000000000000000000 "/
b0000000000000000000000000000000000000000000000000000000000000000 L
b0000000000000000000000000000000000000000000000000000000000000000 J
b0000000000000000000000000000000000000000000000000000000000000000 4
b0000000000000000000000000000000000000000000000000000000000000000 M
b0000000000000000000000000000000000000000000000000000000000000000 K
b0000000000000000000000000000000000000000000000000000000000000000 6
b0000000000000000000000000000000000000000000000000000000000000010 9
b0000000000000000000000000000000000000000000000000000000000000010 "7
b0000000000000000000000000000000000000000000000000000000000000010 "3
b0000000000000000000000000000000000000000000000010000000000000001 =
b0000000000000000000000000000000000000000000000010000000000000001 2
#15000
1!
b00000000000000000000000000001000 ,
b00000000000000000000000000001000 >
b010 I
b11001100100000001000100000000000 H
b11001100100000001000100000000000 D
b000 F
b110 E
b00000000000000000000000000001100 .
b00000000000000000000000000001110 <
b010 ?
b010 0
b010 +
b00000000000100010000000100110011 C
b00000000000100010000000100110011 /
b011 "1
b00000000000000000000000000001100 -
0":
0$
0"=
0'
0"<
0&
b0000000000000000000000000000000000000000000000000000000000000000 "0
b0000000000000000000000000000000000000000000000000000000000000000 7
b00000000000000000000000000001100 <
b0000000000000000000000000000000000000000000000000000000000000000 =
b0000000000000000000000000000000000000000000000000000000000000010 2
b0000000000000000000000000000000000000000000000000000000000000000 8
b0000000000000000000000000000000000000000000000000000000000000000 9
b0000000000000000000000000000000000000000000000000000000000000000 "7
b0000000000000000000000000000000000000000000000000000000000000000 "3
b0000000000000000000000000000000000000000000000000000000000000000 2
b00010 @
b00010 3
b00001 A
b00001 5
#20000
0"
0!
#25000
1!
b00000000000000000000000000001100 ,
b00000000000000000000000000001100 >
b011 I
b11000100100011000000110000000000 H
b11000100100011000000110000000000 D
b110 F
b010 E
b00000000000000000000000000010000 .
b00000000000000000000000000010000 <
b001 ?
b001 0
b001 +
b00000000001100000011000100100011 C
b00000000001100000011000100100011 /
b010 "1
b00000000000000000000000000010000 -
1";
1%
0">
0(
1"<
1&
b0000000000000000000000000000000000000000000000000000000000000010 "0
b0000000000000000000000000000000000000000000000000000000000000010 7
b00000000000000000000000000010010 <
0R
b0000000000000000000000000000000000000000000000000000000000000010 8
b0000000000000000000000000000000000000000000000000000000000000010 9
b0000000000000000000000000000000000000000000000000000000000000010 "7
b0000000000000000000000000000000000000000000000000000000000000010 "3
b0000000000000000000000000000000000000000000000000000000000000010 2
b00000 @
b00000 3
b00011 A
b00011 5
#30000
0!
#35000
1!
b00000000000000000000000000010000 ,
b00000000000000000000000000010000 >
b100 I
bxxxxxxxxxxxxxxxxxxxxxxxxxxxxxxxx H
bxxxxxxxxxxxxxxxxxxxxxxxxxxxxxxxx D
xG
bxxx F
bxxx E
b00000000000000000000000000010100 .
b00000000000000000000000000010110 <
bxxxxxxxxxxxxxxxxxxxxxxxxxxxxxxxx C
bxxxxxxxxxxxxxxxxxxxxxxxxxxxxxxxx /
bxxx "1
b00000000000000000000000000010100 -
b0000000000000000000000000000000000000000000000000000000000000000 "0
b0000000000000000000000000000000000000000000000000000000000000000 7
b00000000000000000000000000010100 <
b0000000000000000000000000000000000000000000000000000000000000000 8
b0000000000000000000000000000000000000000000000000000000000000000 9
b0000000000000000000000000000000000000000000000000000000000000000 "7
b0000000000000000000000000000000000000000000000000000000000000000 "3
b0000000000000000000000000000000000000000000000000000000000000000 2
bxxxxx @
bxxxxx 3
bxxxxx A
bxxxxx 5
bxxxxx B
bxxxxx 1
bxxxxxxxxxxxxxxxxxxxxxxxxxxxxxxxxxxxxxxxxxxxxxxxxxxxxxxxxxxxxxxxx L
bxxxxxxxxxxxxxxxxxxxxxxxxxxxxxxxxxxxxxxxxxxxxxxxxxxxxxxxxxxxxxxxx J
bxxxxxxxxxxxxxxxxxxxxxxxxxxxxxxxxxxxxxxxxxxxxxxxxxxxxxxxxxxxxxxxx 4
bxxxxxxxxxxxxxxxxxxxxxxxxxxxxxxxxxxxxxxxxxxxxxxxxxxxxxxxxxxxxxxxx M
bxxxxxxxxxxxxxxxxxxxxxxxxxxxxxxxxxxxxxxxxxxxxxxxxxxxxxxxxxxxxxxxx K
bxxxxxxxxxxxxxxxxxxxxxxxxxxxxxxxxxxxxxxxxxxxxxxxxxxxxxxxxxxxxxxxx 6
bxxxxxxxxxxxxxxxxxxxxxxxxxxxxxxxxxxxxxxxxxxxxxxxxxxxxxxxxxxxxxxxx 9
bxxxxxxxxxxxxxxxxxxxxxxxxxxxxxxxxxxxxxxxxxxxxxxxxxxxxxxxxxxxxxxxx "7
bxxxxxxxxxxxxxxxxxxxxxxxxxxxxxxxxxxxxxxxxxxxxxxxxxxxxxxxxxxxxxxxx "3
bxxxxxxxxxxxxxxxxxxxxxxxxxxxxxxxxxxxxxxxxxxxxxxxxxxxxxxxxxxxxxxxx 2
#40000
0!
#45000
1!
b00000000000000000000000000010100 ,
b00000000000000000000000000010100 >
b101 I
b00000000000000000000000000011000 .
b00000000000000000000000000011000 <
b00000000000000000000000000011000 -
#50000
0!
#55000
1!
b00000000000000000000000000011000 ,
b00000000000000000000000000011000 >
b110 I
b00000000000000000000000000011100 .
b00000000000000000000000000011100 <
b00000000000000000000000000011100 -
#60000
0!
#65000
1!
b00000000000000000000000000011100 ,
b00000000000000000000000000011100 >
b111 I
b00000000000000000000000000100000 .
b00000000000000000000000000100000 <
b00000000000000000000000000100000 -
#70000
0!
#75000
1!
b00000000000000000000000000100000 ,
b00000000000000000000000000100000 >
b000 I
b11000001000011000000100000000000 H
b11000001000011000000100000000000 D
0G
b110 F
b000 E
b00000000000000000000000000100100 .
b00000000000000000000000000100100 <
b000 ?
b000 0
b000 +
b00000000000100000011000010000011 C
b00000000000100000011000010000011 /
b000 "1
b00000000000000000000000000100100 -
0";
0%
1":
1$
1">
1(
1"=
1'
b0000000000000000000000000000000000000000000000000000000000000001 "0
b0000000000000000000000000000000000000000000000000000000000000001 7
b00000000000000000000000000100101 <
bxxxxxxxxxxxxxxxxxxxxxxxxxxxxxxxxxxxxxxxxxxxxxxxxxxxxxxxxxxxxxxxx =
x".
x",
x"*
x"(
x"&
x"$
x""
x~
x|
xz
xx
xv
xt
xr
xp
xn
xl
xj
xh
xf
xd
xb
x`
x^
x\
xZ
xX
xV
xT
xR
xP
xN
bxxxxxxxxxxxxxxxxxxxxxxxxxxxxxxxxxxxxxxxxxxxxxxxxxxxxxxxxxxxxxxxx 2
b0000000000000000000000000000000000000000000000000000000000000001 8
b00000 @
b00000 3
b00001 A
b00001 5
b00001 B
b00001 1
0".
0",
0"*
0"(
0"&
0"$
0""
0~
0|
0z
0x
0v
0t
0r
0p
0n
0l
0j
0h
0f
0d
0b
0`
0^
0\
0Z
0X
0V
0T
0R
1P
0N
b0000000000000000000000000000000000000000000000000000000000000000 L
b0000000000000000000000000000000000000000000000000000000000000000 J
b0000000000000000000000000000000000000000000000000000000000000000 4
b0000000000000000000000000000000000000000000000000000000000000000 M
b0000000000000000000000000000000000000000000000000000000000000000 K
b0000000000000000000000000000000000000000000000000000000000000000 6
b0000000000000000000000000000000000000000000000000000000000000001 9
b0000000000000000000000000000000000000000000000000000000000000001 "7
b0000000000000000000000000000000000000000000000000000000000000001 "3
b0000000000000000000000000000000000000000000000100000000000000001 =
b0000000000000000000000000000000000000000000000100000000000000001 2
#80000
0!
#85000
1!
b00000000000000000000000000100100 ,
b00000000000000000000000000100100 >
b001 I
b11000000100011000000010000000000 H
b11000000100011000000010000000000 D
b00000000000000000000000000101000 .
b00000000000000000000000000101001 <
b0000000000000000000000000000000000000000000000100000000000000001 Q
b00000000001000000011000100000011 C
b00000000001000000011000100000011 /
b00000000000000000000000000101000 -
b0000000000000000000000000000000000000000000000000000000000000010 "0
b0000000000000000000000000000000000000000000000000000000000000010 7
b00000000000000000000000000101010 <
b0000000000000000000000000000000000000000000000100000000000000001 M
b0000000000000000000000000000000000000000000000100000000000000001 K
b0000000000000000000000000000000000000000000000100000000000000001 6
b0000000000000000000000000000000000000000000000000000000000000010 8
b0000000000000000000000000000000000000000000000000000000000000010 9
b0000000000000000000000000000000000000000000000000000000000000010 "7
b0000000000000000000000000000000000000000000000000000000000000010 "3
b0000000000000000000000000000000000000000000000000000000000000000 =
b0000000000000000000000000000000000000000000000000000000000000000 2
b00010 A
b00010 5
b00010 B
b00010 1
1R
0P
b0000000000000000000000000000000000000000000000000000000000000000 M
b0000000000000000000000000000000000000000000000000000000000000000 K
b0000000000000000000000000000000000000000000000000000000000000000 6
#90000
0!
